.Xil/Vivado-26896-ckdur-X550DP/hw_ila_data_1/zip_work/waveform.vcd
$date
        2017-Apr-12 01:22:21
$end
$version
        Vivado v2016.4 (64-bit)
$end
$timescale
        1ps
$end
$scope module dut $end
$var reg 1 " m_axi_awvalid_0 $end
$var reg 1 # m_axi_awready $end
$var reg 32 $ \m_axi_awaddr_o[0] [31:0] $end
$var reg 3 D \m_axi_awprot_o[0] [2:0] $end
$var reg 1 G m_axi_wvalid_0 $end
$var reg 1 H m_axi_wready_1 $end
$var reg 32 I \m_axi_wdata_o[0] [31:0] $end
$var reg 4 i \m_axi_wstrb_o[0] [3:0] $end
$var reg 1 m m_axi_bvalid_1 $end
$var reg 1 n m_axi_bready_0 $end
$var reg 1 o m_axi_arvalid_0 $end
$var reg 1 p m_axi_arready_1 $end
$var reg 32 q \m_axi_araddr_o[0] [31:0] $end
$var reg 3 3" \m_axi_arprot_o[0] [2:0] $end
$var reg 1 6" m_axi_rvalid_1 $end
$var reg 1 7" m_axi_rready_0 $end
$var reg 32 8" \m_axi_rdata_o[0] [31:0] $end
$var reg 1 X" m_axi_awvalid_1 $end
$var reg 1 Y" m_axi_awready_1 $end
$var reg 32 Z" \m_axi_awaddr_o[1] [31:0] $end
$var reg 3 z" \m_axi_awprot_o[1] [2:0] $end
$var reg 1 }" m_axi_wvalid_1 $end
$var reg 1 ~" m_axi_wready $end
$var reg 32 !# \m_axi_wdata_o[1] [31:0] $end
$var reg 4 A# \m_axi_wstrb_o[1] [3:0] $end
$var reg 1 E# m_axi_bvalid $end
$var reg 1 F# m_axi_bready_1 $end
$var reg 1 G# m_axi_arvalid_1 $end
$var reg 1 H# m_axi_arready $end
$var reg 32 I# \m_axi_araddr_o[1] [31:0] $end
$var reg 3 i# \m_axi_arprot_o[1] [2:0] $end
$var reg 1 l# m_axi_rvalid $end
$var reg 1 m# m_axi_rready_1 $end
$var reg 32 n# \m_axi_rdata_o[1] [31:0] $end
$var reg 1 0$ RST_IBUF $end
$var reg 32 1$ GPIO_PinIn [31:0] $end
$var reg 32 Q$ GPIO_PinOut [31:0] $end
$var reg 32 q$ GPIO_Rx [31:0] $end
$var reg 32 3% GPIO_Tx [31:0] $end
$var reg 32 S% GPIO_Strength [31:0] $end
$var reg 32 s% GPIO_Pulldown [31:0] $end
$var reg 32 5& GPIO_Pullup [31:0] $end
$var reg 32 U& PROGADDR_IRQ [31:0] $end
$var reg 1 u& _TRIGGER $end
$var reg 1 v& _WINDOW $end
$var reg 1 w& _GAP $end
$upscope $end
$enddefinitions $end
#0
$dumpvars
0"
0#
b10110000100 $
b0 D
0G
0H
b1001111 I
b1111 i
0m
0n
1o
0p
b10110000100 q
b100 3"
06"
17"
b0 8"
0X"
0Y"
b0 Z"
b0 z"
0}"
0~"
b0 !#
b1111 A#
0E#
0F#
0G#
0H#
b0 I#
b0 i#
0l#
0m#
b0 n#
10$
b10 1$
b0 Q$
b10 q$
b1 3%
b0 S%
b0 s%
b0 5&
b10110011011 U&
1u&
1v&
0w&
$end
#1
b0 I
b0 i
#2
1p
b101101010010000000100011 8"
#3
0o
#518
16"
b110001010010000000100011 8"
#519
b10000000000000100001100101100 $
0p
b10000000000000100001100101100 q
b0 3"
06"
07"
b0 8"
#520
b1001111 I
b1111 i
#521
b1001011 I
#522
1"
1G
1n
#524
1#
1H
#525
0"
0G
